<?xml version="1.0" encoding="UTF-8"?>
<CustomTab xmlns="http://soap.sforce.com/2006/04/metadata">
    <description>Created by Lightning App Builder</description>
    <flexiPage>DNBoptimizer__Data_Stewardship_LTNG</flexiPage>
    <icon>DNBoptimizer__D_B_Optimizer/DNBoptimizer__D_B_Classic_Logo.png</icon>
    <label>Data Stewardship</label>
    <motif>Custom331: TV Widescreen</motif>
</CustomTab>
