<?xml version="1.0" encoding="UTF-8"?>
<CustomTab xmlns="http://soap.sforce.com/2006/04/metadata">
    <label>Strategy Notes</label>
    <motif>Custom27: Laptop</motif>
    <page>Strategy_Notes_Page</page>
</CustomTab>
